[gd_scene load_steps=21 format=2]

[ext_resource path="res://Actors/Enemy.gd" type="Script" id=1]
[ext_resource path="res://Objects/EnemyBullet.tscn" type="PackedScene" id=2]
[ext_resource path="res://Assets/Sprites/LaserEnemy.png" type="Texture" id=3]
[ext_resource path="res://Assets/Sounds/boom.ogg" type="AudioStream" id=4]
[ext_resource path="res://Assets/Sprites/Explosion.png" type="Texture" id=5]
[ext_resource path="res://Assets/Sounds/pew.ogg" type="AudioStream" id=6]
[ext_resource path="res://Shaders/Flash.shader" type="Shader" id=7]

[sub_resource type="ShaderMaterial" id=1]
resource_local_to_scene = true
shader = ExtResource( 7 )
shader_param/flash_color = Color( 1, 1, 1, 1 )
shader_param/flash_modifier = 0.0

[sub_resource type="AtlasTexture" id=2]
atlas = ExtResource( 5 )
region = Rect2( 0, 0, 16, 16 )

[sub_resource type="AtlasTexture" id=3]
atlas = ExtResource( 5 )
region = Rect2( 16, 0, 16, 16 )

[sub_resource type="AtlasTexture" id=4]
atlas = ExtResource( 5 )
region = Rect2( 32, 0, 16, 16 )

[sub_resource type="AtlasTexture" id=5]
atlas = ExtResource( 5 )
region = Rect2( 48, 0, 16, 16 )

[sub_resource type="AtlasTexture" id=6]
atlas = ExtResource( 5 )
region = Rect2( 64, 0, 16, 16 )

[sub_resource type="AtlasTexture" id=7]
atlas = ExtResource( 5 )
region = Rect2( 80, 0, 16, 16 )

[sub_resource type="AtlasTexture" id=8]
atlas = ExtResource( 5 )
region = Rect2( 96, 0, 16, 16 )

[sub_resource type="SpriteFrames" id=9]
animations = [ {
"frames": [ ExtResource( 3 ) ],
"loop": false,
"name": "default",
"speed": 1.0
}, {
"frames": [ SubResource( 2 ), SubResource( 3 ), SubResource( 4 ), SubResource( 5 ), SubResource( 6 ), SubResource( 7 ), SubResource( 8 ) ],
"loop": false,
"name": "death",
"speed": 12.0
} ]

[sub_resource type="RectangleShape2D" id=10]
extents = Vector2( 7.96445, 5.98876 )

[sub_resource type="AudioStreamRandomPitch" id=11]
audio_stream = ExtResource( 4 )

[sub_resource type="AudioStreamRandomPitch" id=12]
audio_stream = ExtResource( 6 )

[sub_resource type="Animation" id=13]
length = 0.1
tracks/0/type = "value"
tracks/0/path = NodePath(".:material:shader_param/flash_modifier")
tracks/0/interp = 1
tracks/0/loop_wrap = true
tracks/0/imported = false
tracks/0/enabled = true
tracks/0/keys = {
"times": PoolRealArray( 0, 0.1 ),
"transitions": PoolRealArray( 1, 0.5 ),
"update": 0,
"values": [ 1.0, 0.0 ]
}

[node name="LaserEnemy" type="KinematicBody2D"]
material = SubResource( 1 )
z_index = 10
collision_layer = 2
collision_mask = 17
script = ExtResource( 1 )
__meta__ = {
"_editor_description_": ""
}
max_health = 20
bullet = ExtResource( 2 )
fire_rate = 0.5
fire_range = 200.0
acceleration = 100.0
max_speed = 20.0
turn_speed = 0.5
score_value = 10

[node name="AnimatedSprite" type="AnimatedSprite" parent="."]
use_parent_material = true
rotation = 1.5708
frames = SubResource( 9 )

[node name="CollisionShape2D" type="CollisionShape2D" parent="."]
shape = SubResource( 10 )

[node name="DamageAudioPlayer" type="AudioStreamPlayer2D" parent="."]
stream = SubResource( 11 )
max_distance = 1000.0

[node name="FireAudioPlayer" type="AudioStreamPlayer2D" parent="."]
stream = SubResource( 12 )
max_distance = 1000.0

[node name="AnimationPlayer" type="AnimationPlayer" parent="."]
"anims/Take Damage" = SubResource( 13 )
