[gd_scene load_steps=5 format=2]

[ext_resource path="res://Assets/Sprites/HealthBar.png" type="Texture" id=1]
[ext_resource path="res://Assets/Sprites/Ship.png" type="Texture" id=2]
[ext_resource path="res://Resources/UITheme.tres" type="Theme" id=3]
[ext_resource path="res://UserInterface/PlayerHealthBar.gd" type="Script" id=4]

[node name="PlayerHealthBar" type="Control"]
theme = ExtResource( 3 )
script = ExtResource( 4 )
__meta__ = {
"_edit_use_anchors_": false
}

[node name="Background" type="NinePatchRect" parent="."]
margin_left = 48.0
margin_right = 208.0
margin_bottom = 16.0
rect_scale = Vector2( 2, 2 )
texture = ExtResource( 1 )
region_rect = Rect2( 0, 0, 160, 16 )
axis_stretch_horizontal = 1
__meta__ = {
"_edit_use_anchors_": false
}

[node name="Bar" type="NinePatchRect" parent="."]
margin_left = 48.0
margin_right = 208.0
margin_bottom = 16.0
rect_scale = Vector2( 2, 2 )
texture = ExtResource( 1 )
region_rect = Rect2( 0, 32, 160, 16 )
axis_stretch_horizontal = 1
__meta__ = {
"_edit_use_anchors_": false
}

[node name="Sprite" type="TextureRect" parent="."]
margin_right = 16.0
margin_bottom = 16.0
rect_scale = Vector2( 2, 2 )
texture = ExtResource( 2 )
__meta__ = {
"_edit_use_anchors_": false
}

[node name="Label" type="Label" parent="."]
margin_left = 48.0
margin_right = 368.0
margin_bottom = 32.0
text = "100/100"
align = 1
valign = 1
__meta__ = {
"_edit_use_anchors_": false
}
